{
  "_class": "symbolInstance",
  "do_objectID": "67A5F0D1-8849-4525-ADB6-67DE43C68B31",
  "exportOptions": {
    "_class": "exportOptions",
    "exportFormats": [
    ],
    "includedLayerIds": [
    ],
    "layerOptions": 0,
    "shouldTrim": false
  },
  "frame": {
    "_class": "rect",
    "constrainProportions": false,
    "height": 88,
    "width": 258,
    "x": 0,
    "y": 64
  },
  "horizontalSpacing": 0,
  "isFlippedHorizontal": false,
  "isFlippedVertical": false,
  "isLocked": false,
  "isVisible": true,
  "layerListExpandedType": 0,
  "masterInfluenceEdgeMaxXPadding": 0,
  "masterInfluenceEdgeMaxYPadding": 0,
  "masterInfluenceEdgeMinXPadding": 0,
  "masterInfluenceEdgeMinYPadding": 0,
  "name": "issuable-sidebar--expanded/molecules/assignee/",
  "nameIsFixed": true,
  "overrides": {
    "74E6FC33-3909-4BF5-8E94-4B29FFA517F4": {
      "symbolID": "E1CF0975-04AE-44D7-BFC5-990786A188AB"
    }
  },
  "resizingConstraint": 63,
  "resizingType": 0,
  "rotation": 0,
  "shouldBreakMaskChain": false,
  "style": {
    "_class": "style",
    "endDecorationType": 0,
    "miterLimit": 10,
    "startDecorationType": 0
  },
  "symbolID": "9E627231-DFED-4B78-A49A-F064573C2E44",
  "verticalSpacing": 0
}