{
  "_class": "group",
  "do_objectID": "988C8BF6-C368-40EA-81CA-15148CE8B1FF",
  "exportOptions": {
    "_class": "exportOptions",
    "exportFormats": [
    ],
    "includedLayerIds": [
    ],
    "layerOptions": 0,
    "shouldTrim": false
  },
  "frame": {
    "_class": "rect",
    "constrainProportions": false,
    "height": 18,
    "width": 229,
    "x": 237,
    "y": 58
  },
  "hasClickThrough": false,
  "isFlippedHorizontal": false,
  "isFlippedVertical": false,
  "isLocked": false,
  "isVisible": true,
  "layerListExpandedType": 0,
  "layers": [
    {
      "class": "shapeGroup",
      "id": "B3CA809E-D4C2-4415-9A16-BBAC6A4CAF8D"
    },
    {
      "class": "text",
      "id": "17D62EA6-CFDF-4551-AE47-ADDD51713821"
    },
    {
      "class": "text",
      "id": "D655B0E6-B1C7-4000-ADF4-2CCD471D3A00"
    },
    {
      "class": "text",
      "id": "5AB1EDE4-F0FF-44DE-BAB3-3DA2E8593986"
    },
    {
      "class": "text",
      "id": "B802B448-2279-4435-B099-CC5C6BC9731D"
    },
    {
      "class": "text",
      "id": "930FD7A7-89CE-4284-AE47-7E50BE4235AD"
    }
  ],
  "name": "Breadcrumbs",
  "nameIsFixed": true,
  "resizingConstraint": 63,
  "resizingType": 0,
  "rotation": 0,
  "shouldBreakMaskChain": false,
  "style": {
    "_class": "style",
    "endDecorationType": 0,
    "miterLimit": 10,
    "startDecorationType": 0
  }
}