{
  "_class": "group",
  "do_objectID": "E134A0E3-5FE0-4A79-82A6-5CC5B5257582",
  "exportOptions": {
    "_class": "exportOptions",
    "exportFormats": [
    ],
    "includedLayerIds": [
    ],
    "layerOptions": 0,
    "shouldTrim": false
  },
  "frame": {
    "_class": "rect",
    "constrainProportions": false,
    "height": 28,
    "width": 96,
    "x": 0.5,
    "y": 0
  },
  "hasClickThrough": false,
  "isFlippedHorizontal": false,
  "isFlippedVertical": false,
  "isLocked": false,
  "isVisible": true,
  "layerListExpandedType": 0,
  "layers": [
    {
      "class": "shapeGroup",
      "id": "747AF9C7-3008-402C-A10A-B33299152603"
    },
    {
      "class": "shapeGroup",
      "id": "19646860-BBDC-4231-B0B1-2FD0F3114A87"
    },
    {
      "class": "text",
      "id": "E673DCF8-AF7C-44DB-BA73-CE03F0D2153A"
    }
  ],
  "name": "global-components/tooltips/top",
  "nameIsFixed": false,
  "resizingConstraint": 63,
  "resizingType": 0,
  "rotation": 0,
  "shouldBreakMaskChain": false,
  "style": {
    "_class": "style",
    "endDecorationType": 0,
    "miterLimit": 10,
    "startDecorationType": 0
  }
}