{
  "_class": "shapePath",
  "booleanOperation": -1,
  "do_objectID": "6E6BCEC3-0094-4034-B80D-289642337361",
  "edited": true,
  "exportOptions": {
    "_class": "exportOptions",
    "exportFormats": [
    ],
    "includedLayerIds": [
    ],
    "layerOptions": 0,
    "shouldTrim": false
  },
  "frame": {
    "_class": "rect",
    "constrainProportions": false,
    "height": 16,
    "width": 16,
    "x": 3.469446951953614e-18,
    "y": 0
  },
  "isFlippedHorizontal": false,
  "isFlippedVertical": false,
  "isLocked": false,
  "isVisible": true,
  "layerListExpandedType": 0,
  "name": "Path",
  "nameIsFixed": false,
  "path": {
    "_class": "path",
    "isClosed": true,
    "pointRadiusBehaviour": 1,
    "points": [
      {
        "_class": "curvePoint",
        "cornerRadius": 0,
        "curveFrom": "{0.14897054834234214, 0.3735445715903648}",
        "curveMode": 4,
        "curveTo": "{0.13532872113650909, 0.40903649632192951}",
        "hasCurveFrom": false,
        "hasCurveTo": true,
        "point": "{0.14897054834234214, 0.3735445715903648}"
      },
      {
        "_class": "curvePoint",
        "cornerRadius": 0,
        "curveFrom": "{0.072687879083135537, 0.25122010285841145}",
        "curveMode": 4,
        "curveTo": "{0.079968902999755287, 0.2628957218564667}",
        "hasCurveFrom": true,
        "hasCurveTo": false,
        "point": "{0.079968902999755287, 0.2628957218564667}"
      },
      {
        "_class": "curvePoint",
        "cornerRadius": 0,
        "curveFrom": "{0.082031597438339404, 0.22531648946552887}",
        "curveMode": 4,
        "curveTo": "{0.073518752430535378, 0.23608282317930981}",
        "hasCurveFrom": false,
        "hasCurveTo": true,
        "point": "{0.082031597438339404, 0.22531648946552887}"
      },
      {
        "_class": "curvePoint",
        "cornerRadius": 0,
        "curveFrom": "{0.14114169565199924, 0.15055898564169332}",
        "curveMode": 4,
        "curveTo": "{0.13262885064419519, 0.16132531935547423}",
        "hasCurveFrom": true,
        "hasCurveTo": false,
        "point": "{0.13262885064419519, 0.16132531935547423}"
      },
      {
        "_class": "curvePoint",
        "cornerRadius": 0,
        "curveFrom": "{0.16809135761479072, 0.15144581842309868}",
        "curveMode": 4,
        "curveTo": "{0.15542633777964007, 0.14657942674204485}",
        "hasCurveFrom": false,
        "hasCurveTo": true,
        "point": "{0.16809135761479072, 0.15144581842309868}"
      },
      {
        "_class": "curvePoint",
        "cornerRadius": 0,
        "curveFrom": "{0.31757092499405731, 0.17460220259715534}",
        "curveMode": 4,
        "curveTo": "{0.28614048875869968, 0.19680487172358785}",
        "hasCurveFrom": true,
        "hasCurveTo": false,
        "point": "{0.28614048875869968, 0.19680487172358785}"
      },
      {
        "_class": "curvePoint",
        "cornerRadius": 0,
        "curveFrom": "{0.38979567291405759, 0.14549012127838995}",
        "curveMode": 4,
        "curveTo": "{0.35245341530645863, 0.15715853658724471}",
        "hasCurveFrom": false,
        "hasCurveTo": true,
        "point": "{0.38979567291405759, 0.14549012127838995}"
      },
      {
        "_class": "curvePoint",
        "cornerRadius": 0,
        "curveFrom": "{0.43426364386629906, 0.0088648969095374234}",
        "curveMode": 4,
        "curveTo": "{0.4299860167664134, 0.022007654489276402}",
        "hasCurveFrom": true,
        "hasCurveTo": false,
        "point": "{0.4299860167664134, 0.022007654489276402}"
      },
      {
        "_class": "curvePoint",
        "cornerRadius": 0,
        "curveFrom": "{0.45980008440418668, 0}",
        "curveMode": 4,
        "curveTo": "{0.44627303978768723, 2.5448802622126402e-18}",
        "hasCurveFrom": false,
        "hasCurveTo": true,
        "point": "{0.45980008440418668, 0}"
      },
      {
        "_class": "curvePoint",
        "cornerRadius": 0,
        "curveFrom": "{0.55372696021231327, 2.2468395302899101e-17}",
        "curveMode": 4,
        "curveTo": "{0.54019991559581382, 3.5733250807302488e-18}",
        "hasCurveFrom": true,
        "hasCurveTo": false,
        "point": "{0.54019991559581382, 3.5733250807302488e-18}"
      },
      {
        "_class": "curvePoint",
        "cornerRadius": 0,
        "curveFrom": "{0.57001398323358721, 0.022007654489276419}",
        "curveMode": 4,
        "curveTo": "{0.56573635613370155, 0.0088648969095374407}",
        "hasCurveFrom": false,
        "hasCurveTo": true,
        "point": "{0.57001398323358721, 0.022007654489276419}"
      },
      {
        "_class": "curvePoint",
        "cornerRadius": 0,
        "curveFrom": "{0.64754658469354232, 0.1571585365872451}",
        "curveMode": 4,
        "curveTo": "{0.61020432708594219, 0.14549012127839092}",
        "hasCurveFrom": true,
        "hasCurveTo": false,
        "point": "{0.61020432708594219, 0.14549012127839092}"
      },
      {
        "_class": "curvePoint",
        "cornerRadius": 0,
        "curveFrom": "{0.71385951124129976, 0.1968048717235876}",
        "curveMode": 4,
        "curveTo": "{0.68242907500594319, 0.17460220259715559}",
        "hasCurveFrom": false,
        "hasCurveTo": true,
        "point": "{0.71385951124129976, 0.1968048717235876}"
      },
      {
        "_class": "curvePoint",
        "cornerRadius": 0,
        "curveFrom": "{0.84457366222036001, 0.14657942674204483}",
        "curveMode": 4,
        "curveTo": "{0.83190864238520934, 0.15144581842309868}",
        "hasCurveFrom": true,
        "hasCurveTo": false,
        "point": "{0.83190864238520934, 0.15144581842309868}"
      },
      {
        "_class": "curvePoint",
        "cornerRadius": 0,
        "curveFrom": "{0.86737114935580484, 0.1613253193554742}",
        "curveMode": 4,
        "curveTo": "{0.85885830434800081, 0.15055898564169329}",
        "hasCurveFrom": false,
        "hasCurveTo": true,
        "point": "{0.86737114935580484, 0.1613253193554742}"
      },
      {
        "_class": "curvePoint",
        "cornerRadius": 0,
        "curveFrom": "{0.92648124756946471, 0.23608282317930979}",
        "curveMode": 4,
        "curveTo": "{0.91796840256166068, 0.22531648946552885}",
        "hasCurveFrom": true,
        "hasCurveTo": false,
        "point": "{0.91796840256166068, 0.22531648946552885}"
      },
      {
        "_class": "curvePoint",
        "cornerRadius": 0,
        "curveFrom": "{0.92003109700024477, 0.2628957218564667}",
        "curveMode": 4,
        "curveTo": "{0.92731212091686455, 0.25122010285841145}",
        "hasCurveFrom": false,
        "hasCurveTo": true,
        "point": "{0.92003109700024477, 0.2628957218564667}"
      },
      {
        "_class": "curvePoint",
        "cornerRadius": 0,
        "curveFrom": "{0.8646712788634916, 0.40903649632193145}",
        "curveMode": 4,
        "curveTo": "{0.85102945165765942, 0.37354457159036253}",
        "hasCurveFrom": true,
        "hasCurveTo": false,
        "point": "{0.85102945165765942, 0.37354457159036253}"
      },
      {
        "_class": "curvePoint",
        "cornerRadius": 0,
        "curveFrom": "{0.87612141047916436, 0.48682045894580162}",
        "curveMode": 4,
        "curveTo": "{0.87332950356360972, 0.44709646885791504}",
        "hasCurveFrom": false,
        "hasCurveTo": true,
        "point": "{0.87612141047916436, 0.48682045894580162}"
      },
      {
        "_class": "curvePoint",
        "cornerRadius": 0,
        "curveFrom": "{0.99650287364550738, 0.56217923208075182}",
        "curveMode": 4,
        "curveTo": "{0.98496115498838832, 0.55495411838806141}",
        "hasCurveFrom": true,
        "hasCurveTo": false,
        "point": "{0.98496115498838832, 0.55495411838806141}"
      },
      {
        "_class": "curvePoint",
        "cornerRadius": 0,
        "curveFrom": "{0.99919245754360952, 0.58965616883965954}",
        "curveMode": 4,
        "curveTo": "{1.0022353804922477, 0.57615755493895926}",
        "hasCurveFrom": false,
        "hasCurveTo": true,
        "point": "{0.99919245754360952, 0.58965616883965954}"
      },
      {
        "_class": "curvePoint",
        "cornerRadius": 0,
        "curveFrom": "{0.97806350779934625, 0.68338563210220049}",
        "curveMode": 4,
        "curveTo": "{0.98110643074798431, 0.6698870182015001}",
        "hasCurveFrom": true,
        "hasCurveTo": false,
        "point": "{0.98110643074798431, 0.6698870182015001}"
      },
      {
        "_class": "curvePoint",
        "cornerRadius": 0,
        "curveFrom": "{0.95346171629397025, 0.69468777849110197}",
        "curveMode": 4,
        "curveTo": "{0.96692794840350749, 0.69337561914750778}",
        "hasCurveFrom": false,
        "hasCurveTo": true,
        "point": "{0.95346171629397025, 0.69468777849110197}"
      },
      {
        "_class": "curvePoint",
        "cornerRadius": 0,
        "curveFrom": "{0.80799111571031679, 0.74135125263876889}",
        "curveMode": 4,
        "curveTo": "{0.8272589289930472, 0.70698506886880563}",
        "hasCurveFrom": true,
        "hasCurveTo": false,
        "point": "{0.8272589289930472, 0.70698506886880563}"
      },
      {
        "_class": "curvePoint",
        "cornerRadius": 0,
        "curveFrom": "{0.75543954487874332, 0.79906778703334991}",
        "curveMode": 4,
        "curveTo": "{0.78371080159229045, 0.77239423398091067}",
        "hasCurveFrom": false,
        "hasCurveTo": true,
        "point": "{0.75543954487874332, 0.79906778703334991}"
      },
      {
        "_class": "curvePoint",
        "cornerRadius": 0,
        "curveFrom": "{0.77387244353752316, 0.94121314418308433}",
        "curveMode": 4,
        "curveTo": "{0.77209158441524961, 0.92748004334772804}",
        "hasCurveFrom": true,
        "hasCurveTo": false,
        "point": "{0.77209158441524961, 0.92748004334772804}"
      },
      {
        "_class": "curvePoint",
        "cornerRadius": 0,
        "curveFrom": "{0.75471493210440732, 0.9606456121883552}",
        "curveMode": 4,
        "curveTo": "{0.76687295926974031, 0.95457255733006852}",
        "hasCurveFrom": false,
        "hasCurveTo": true,
        "point": "{0.75471493210440732, 0.9606456121883552}"
      },
      {
        "_class": "curvePoint",
        "cornerRadius": 0,
        "curveFrom": "{0.67029401534058186, 1.0028146953563415}",
        "curveMode": 4,
        "curveTo": "{0.68245204250591474, 0.9967416404980548}",
        "hasCurveFrom": true,
        "hasCurveTo": false,
        "point": "{0.68245204250591474, 0.9967416404980548}"
      },
      {
        "_class": "curvePoint",
        "cornerRadius": 0,
        "curveFrom": "{0.64623528183917434, 0.99034651168274046}",
        "curveMode": 4,
        "curveTo": "{0.65570555250077833, 1.0002386753766295}",
        "hasCurveFrom": false,
        "hasCurveTo": true,
        "point": "{0.64623528183917434, 0.99034651168274046}"
      },
      {
        "_class": "curvePoint",
        "cornerRadius": 0,
        "curveFrom": "{0.53820775928655706, 0.89968154146542312}",
        "curveMode": 4,
        "curveTo": "{0.55670258463715072, 0.89682520396883814}",
        "hasCurveFrom": true,
        "hasCurveTo": false,
        "point": "{0.55670258463715072, 0.89682520396883814}"
      },
      {
        "_class": "curvePoint",
        "cornerRadius": 0,
        "curveFrom": "{0.48072728204791759, 0.90116221790866879}",
        "curveMode": 2,
        "curveTo": "{0.51927271795208263, 0.90116221790866879}",
        "hasCurveFrom": true,
        "hasCurveTo": true,
        "point": "{0.50000000000000011, 0.90116221790866879}"
      },
      {
        "_class": "curvePoint",
        "cornerRadius": 0,
        "curveFrom": "{0.44329741536284978, 0.89682520396883803}",
        "curveMode": 4,
        "curveTo": "{0.46179224071344316, 0.89968154146542312}",
        "hasCurveFrom": false,
        "hasCurveTo": true,
        "point": "{0.44329741536284978, 0.89682520396883803}"
      },
      {
        "_class": "curvePoint",
        "cornerRadius": 0,
        "curveFrom": "{0.34429444749922206, 1.0002386753766295}",
        "curveMode": 4,
        "curveTo": "{0.35376471816082616, 0.99034651168274046}",
        "hasCurveFrom": true,
        "hasCurveTo": false,
        "point": "{0.35376471816082616, 0.99034651168274046}"
      },
      {
        "_class": "curvePoint",
        "cornerRadius": 0,
        "curveFrom": "{0.31754795749408571, 0.99674164049805491}",
        "curveMode": 4,
        "curveTo": "{0.32970598465941853, 1.0028146953563415}",
        "hasCurveFrom": false,
        "hasCurveTo": true,
        "point": "{0.31754795749408571, 0.99674164049805491}"
      },
      {
        "_class": "curvePoint",
        "cornerRadius": 0,
        "curveFrom": "{0.23312704073026011, 0.95457255733006874}",
        "curveMode": 4,
        "curveTo": "{0.24528506789559301, 0.96064561218835531}",
        "hasCurveFrom": true,
        "hasCurveTo": false,
        "point": "{0.24528506789559301, 0.96064561218835531}"
      },
      {
        "_class": "curvePoint",
        "cornerRadius": 0,
        "curveFrom": "{0.22790841558475078, 0.92748004334772816}",
        "curveMode": 4,
        "curveTo": "{0.22612755646247723, 0.94121314418308444}",
        "hasCurveFrom": false,
        "hasCurveTo": true,
        "point": "{0.22790841558475078, 0.92748004334772816}"
      },
      {
        "_class": "curvePoint",
        "cornerRadius": 0,
        "curveFrom": "{0.21628919840764138, 0.77239423398083695}",
        "curveMode": 4,
        "curveTo": "{0.24456045512126265, 0.79906778703331172}",
        "hasCurveFrom": true,
        "hasCurveTo": false,
        "point": "{0.24456045512126265, 0.79906778703331172}"
      },
      {
        "_class": "curvePoint",
        "cornerRadius": 0,
        "curveFrom": "{0.17274107100695379, 0.70698506886880541}",
        "curveMode": 4,
        "curveTo": "{0.19200888428960255, 0.74135125263865997}",
        "hasCurveFrom": false,
        "hasCurveTo": true,
        "point": "{0.17274107100695379, 0.70698506886880541}"
      },
      {
        "_class": "curvePoint",
        "cornerRadius": 0,
        "curveFrom": "{0.033072051596492569, 0.69337561914750789}",
        "curveMode": 4,
        "curveTo": "{0.046538283706029887, 0.69468777849110197}",
        "hasCurveFrom": true,
        "hasCurveTo": false,
        "point": "{0.046538283706029887, 0.69468777849110197}"
      },
      {
        "_class": "curvePoint",
        "cornerRadius": 0,
        "curveFrom": "{0.018893569252015789, 0.66988701820150021}",
        "curveMode": 4,
        "curveTo": "{0.021936492200653846, 0.6833856321022006}",
        "hasCurveFrom": false,
        "hasCurveTo": true,
        "point": "{0.018893569252015789, 0.66988701820150021}"
      },
      {
        "_class": "curvePoint",
        "cornerRadius": 0,
        "curveFrom": "{-0.0022353804922475846, 0.57615755493895937}",
        "curveMode": 4,
        "curveTo": "{0.000807542456390451, 0.58965616883965966}",
        "hasCurveFrom": true,
        "hasCurveTo": false,
        "point": "{0.000807542456390451, 0.58965616883965966}"
      },
      {
        "_class": "curvePoint",
        "cornerRadius": 0,
        "curveFrom": "{0.015038845011611722, 0.55495411838806141}",
        "curveMode": 4,
        "curveTo": "{0.003497126354492756, 0.56217923208075182}",
        "hasCurveFrom": false,
        "hasCurveTo": true,
        "point": "{0.015038845011611722, 0.55495411838806141}"
      },
      {
        "_class": "curvePoint",
        "cornerRadius": 0,
        "curveFrom": "{0.12667049643639072, 0.44709646885791393}",
        "curveMode": 4,
        "curveTo": "{0.1238785895208358, 0.4868204589458015}",
        "hasCurveFrom": true,
        "hasCurveTo": false,
        "point": "{0.1238785895208358, 0.4868204589458015}"
      }
    ]
  },
  "resizingConstraint": 63,
  "resizingType": 0,
  "rotation": 0,
  "shouldBreakMaskChain": false
}