{
  "_class": "group",
  "do_objectID": "574092DC-5C94-4A87-A961-E86DC5A1DD5B",
  "exportOptions": {
    "_class": "exportOptions",
    "exportFormats": [
    ],
    "includedLayerIds": [
    ],
    "layerOptions": 0,
    "shouldTrim": false
  },
  "frame": {
    "_class": "rect",
    "constrainProportions": false,
    "height": 28,
    "width": 527,
    "x": 607,
    "y": 622
  },
  "hasClickThrough": false,
  "isFlippedHorizontal": false,
  "isFlippedVertical": false,
  "isLocked": false,
  "isVisible": true,
  "layerListExpandedType": 2,
  "layers": [
    {
      "class": "shapeGroup",
      "id": "4B73F420-B9D1-4751-81C2-CDBEA38DE356"
    },
    {
      "class": "shapeGroup",
      "id": "11396E47-552F-48AA-9794-B407437B7850"
    },
    {
      "class": "shapeGroup",
      "id": "340F4477-8DA5-4507-A7D8-32EDF3540137"
    },
    {
      "class": "text",
      "id": "13303D30-0E6C-4DFE-B7A2-64063179A995"
    }
  ],
  "name": "new_epic copy 8",
  "nameIsFixed": true,
  "resizingConstraint": 63,
  "resizingType": 0,
  "rotation": 0,
  "shouldBreakMaskChain": false,
  "style": {
    "_class": "style",
    "endDecorationType": 0,
    "miterLimit": 10,
    "startDecorationType": 0
  }
}