{
  "_class": "group",
  "do_objectID": "4EFA36D7-0B43-4B65-8869-909EF0BAF3B2",
  "exportOptions": {
    "_class": "exportOptions",
    "exportFormats": [
    ],
    "includedLayerIds": [
    ],
    "layerOptions": 0,
    "shouldTrim": false
  },
  "frame": {
    "_class": "rect",
    "constrainProportions": false,
    "height": 625,
    "width": 1459,
    "x": 343,
    "y": 154
  },
  "hasClickThrough": false,
  "isFlippedHorizontal": false,
  "isFlippedVertical": false,
  "isLocked": false,
  "isVisible": true,
  "layerListExpandedType": 1,
  "layers": [
    {
      "class": "group",
      "id": "889295FA-E18A-4C01-92A5-D38D4A144A51"
    },
    {
      "class": "symbolInstance",
      "id": "9CCB1E55-94F7-4761-9036-463C2C3663E0"
    },
    {
      "class": "symbolInstance",
      "id": "50666C86-7001-42DF-8561-AC0DDBF23FE9"
    },
    {
      "class": "symbolInstance",
      "id": "03B29D85-D822-493B-8BD5-0118ED01BDD4"
    },
    {
      "class": "symbolInstance",
      "id": "B3FE63E9-DAD3-49E0-810C-53374DF22E1A"
    },
    {
      "class": "symbolInstance",
      "id": "F317EF06-53A3-4C21-81A5-E6139998F8BE"
    },
    {
      "class": "symbolInstance",
      "id": "8E735921-BB86-43FF-81DF-F0DE411825A3"
    },
    {
      "class": "symbolInstance",
      "id": "2FD3C0E9-7168-4B84-9556-A94B05F79362"
    },
    {
      "class": "symbolInstance",
      "id": "2D1564BA-E2DC-4ED6-99E8-62AC049C446B"
    },
    {
      "class": "symbolInstance",
      "id": "36867E03-FB7A-4DB8-A3FD-12509E1944C6"
    },
    {
      "class": "symbolInstance",
      "id": "FE625E5C-49AB-49C2-814F-02459516CF91"
    },
    {
      "class": "symbolInstance",
      "id": "66A07873-AA4A-481D-8835-E1E1C0085F89"
    },
    {
      "class": "symbolInstance",
      "id": "49E37AB6-08C0-4A5A-9935-E0EEB2B758BF"
    },
    {
      "class": "symbolInstance",
      "id": "ED1629F4-E07D-4D02-8ABD-040F0DE1F1FE"
    },
    {
      "class": "symbolInstance",
      "id": "9FA5E382-0B41-42E0-8F5C-C45BAA9D8830"
    },
    {
      "class": "symbolInstance",
      "id": "553887DE-483D-4FB1-A910-CD221A5263A2"
    },
    {
      "class": "symbolInstance",
      "id": "37595851-79A8-46D3-9C29-27D7FB845B0B"
    },
    {
      "class": "symbolInstance",
      "id": "38BF8293-414C-42DB-AEAA-4679A1717FD9"
    },
    {
      "class": "symbolInstance",
      "id": "5EA43B1A-DE5F-4F1A-8394-3B7C8BD5C427"
    },
    {
      "class": "symbolInstance",
      "id": "E46CC6DD-9E6B-4E26-A596-ABC607910A4D"
    },
    {
      "class": "symbolInstance",
      "id": "6AC17346-AFA3-4D13-89CA-914B0C3F6F81"
    },
    {
      "class": "symbolInstance",
      "id": "560FA501-5A62-45F3-8571-75794812F53B"
    },
    {
      "class": "symbolInstance",
      "id": "9F290D41-6674-4FE9-B6E1-B1A0707683FC"
    },
    {
      "class": "symbolInstance",
      "id": "9581B9EA-011B-414B-BB6D-9B2A33CAF7D4"
    },
    {
      "class": "symbolInstance",
      "id": "CEA28597-49D3-4FEE-838E-2A3EF2ED5136"
    },
    {
      "class": "symbolInstance",
      "id": "C8E3D48D-22E8-477C-A9D9-4F8E4AB4759C"
    },
    {
      "class": "symbolInstance",
      "id": "4C459D4B-2695-4EAA-817C-DE613E188FEF"
    },
    {
      "class": "symbolInstance",
      "id": "525D7C0B-C604-492D-86D9-660432E9F477"
    },
    {
      "class": "symbolInstance",
      "id": "64B30ACF-0997-4D5A-AEA8-346639FE7FCE"
    },
    {
      "class": "symbolInstance",
      "id": "C3CCE187-563D-4B21-9864-4066F6C84624"
    },
    {
      "class": "symbolInstance",
      "id": "3125B2D4-A1C1-4125-B4B2-321CF85BFB30"
    },
    {
      "class": "symbolInstance",
      "id": "DAEFFD2D-A2CC-4D61-B884-B18C4C4CFB65"
    },
    {
      "class": "symbolInstance",
      "id": "4C7F4677-7B92-422C-BE2B-0A5F6381D907"
    },
    {
      "class": "symbolInstance",
      "id": "3F6350D9-6CD2-416F-830E-F632EE71F801"
    },
    {
      "class": "symbolInstance",
      "id": "A7A03DE3-7741-4AAB-A652-A69C8BB456D3"
    },
    {
      "class": "symbolInstance",
      "id": "80D1A44D-CA38-4894-957A-C5E9C6DF528E"
    },
    {
      "class": "symbolInstance",
      "id": "1149B893-913E-46C5-BB22-90EDFDEE2771"
    },
    {
      "class": "symbolInstance",
      "id": "8B960438-BBF0-4C11-AE60-EEF8BC3B42CA"
    },
    {
      "class": "symbolInstance",
      "id": "AB2BF3B3-4A55-4724-9707-2E0E50EC53D0"
    },
    {
      "class": "symbolInstance",
      "id": "95A8CB07-8C20-4B44-8264-70D01E3B69D9"
    },
    {
      "class": "symbolInstance",
      "id": "8A14DAC7-67F1-41DB-BAD5-F09C502F502E"
    },
    {
      "class": "symbolInstance",
      "id": "D90A3782-6F71-42D4-A91F-F5519F8400B3"
    },
    {
      "class": "symbolInstance",
      "id": "0F072D3F-2695-4E21-A34B-3C1DEE7AA769"
    },
    {
      "class": "symbolInstance",
      "id": "8092DBF7-4F97-41EC-A8ED-01C218F86B2B"
    },
    {
      "class": "symbolInstance",
      "id": "DFC20DFD-CB53-4AF3-90A7-FD5B049679DB"
    },
    {
      "class": "symbolInstance",
      "id": "CC20EFF9-9045-4081-9621-C0548446CBCE"
    },
    {
      "class": "symbolInstance",
      "id": "3439355D-4A0F-4807-8EAE-E557E1646090"
    },
    {
      "class": "symbolInstance",
      "id": "7A4A50B5-619D-405A-BEB5-A355AA4B3CB4"
    },
    {
      "class": "symbolInstance",
      "id": "C77F703C-1EAD-4DC2-9FAB-EFBA2978E3A2"
    },
    {
      "class": "symbolInstance",
      "id": "DE799455-7AC7-4137-BFC2-58B6758C03D8"
    },
    {
      "class": "symbolInstance",
      "id": "B0B1C4A0-10AE-4537-ADCD-87A66A5ABA26"
    },
    {
      "class": "symbolInstance",
      "id": "AFB16200-DC61-4E34-8B20-ED78EF9570A1"
    },
    {
      "class": "symbolInstance",
      "id": "319D0DF0-9251-44D4-A845-A5F0159F381F"
    },
    {
      "class": "symbolInstance",
      "id": "9107D6A9-0D1F-4BA8-A343-72CCB0BB92E7"
    },
    {
      "class": "symbolInstance",
      "id": "0A4828AF-E344-4A1E-B4DB-15A7AA3C6A54"
    }
  ],
  "name": "weekenddays",
  "nameIsFixed": true,
  "resizingConstraint": 63,
  "resizingType": 0,
  "rotation": 0,
  "shouldBreakMaskChain": false,
  "style": {
    "_class": "style",
    "endDecorationType": 0,
    "miterLimit": 10,
    "startDecorationType": 0
  }
}